<svg width="51" height="52" viewBox="0 0 51 52" fill="none" xmlns="http://www.w3.org/2000/svg">
<path fill-rule="evenodd" clip-rule="evenodd" d="M25.7124 51.5121C39.6783 51.5121 51 40.1904 51 26.2245C51 12.2585 39.6783 0.936897 25.7124 0.936897C11.7464 0.936897 0.424805 12.2585 0.424805 26.2245C0.424805 40.1904 11.7464 51.5121 25.7124 51.5121Z" fill="#E2FBD7"/>
<g clip-path="url(#clip0)">
<path d="M24.194 14.9855L23.8438 18.4619C23.1284 18.6526 22.4502 18.9343 21.8243 19.2971L19.1194 17.0865L16.5746 19.6313L18.7852 22.3371C18.4181 22.9704 18.1366 23.6495 17.9481 24.3567L14.4736 24.7059V28.3059L17.95 28.6551C18.1406 29.3702 18.4226 30.0481 18.7852 30.6737L16.5746 33.3796L19.1194 35.9243L21.8252 33.7138C22.4509 34.0763 23.1288 34.3584 23.8438 34.5489L24.1931 38.0253H27.7931L28.1423 34.5508C28.8495 34.3624 29.5286 34.0809 30.1618 33.7138L32.8677 35.9243L35.4125 33.3796L33.2019 30.6747C33.5647 30.0487 33.8463 29.3706 34.037 28.6551L37.5134 28.3059V24.7059L34.0389 24.3567C33.8506 23.6491 33.5691 22.9697 33.2019 22.3362L35.4124 19.6314L32.8676 17.0865L30.1627 19.2971C29.5293 18.9299 28.8498 18.6484 28.1423 18.46L27.7931 14.9855H24.194ZM25.9935 23.1751C27.8326 23.1751 29.3239 24.6664 29.3239 26.5054C29.3239 28.3445 27.8326 29.8358 25.9935 29.8358C24.1544 29.8358 22.6632 28.3445 22.6632 26.5054C22.6632 24.6664 24.1544 23.1751 25.9935 23.1751Z" fill="#03B740"/>
</g>
<defs>
<clipPath id="clip0">
<rect width="42.146" height="29.6157" fill="white" transform="translate(4.92041 14.3896)"/>
</clipPath>
</defs>
</svg>
